Tick,FPS,Particle
0,60,0
0,60,0
0,60,0
0,60,0
0,60,0
0,60,0
0,60,0
0,60,0
0,60,0
0,60,0
0,60,0
0,60,0
0,60,0
0,60,0
0,60,0
0,60,0
0,60,0
0,60,0
0,60,0
0,60,0
0,60,0
0,60,0
0,60,0
0,60,0
0,60,0
0,60,0
0,60,0
0,60,0
0,60,0
0,60,0
0,60,0
0,60,0
0,60,0
0,60,0
0,60,0
0,60,0
0,60,0
0,60,0
0,60,0
0,60,0
0,60,0
0,60,0
0,60,0
0,60,0
0,60,0
0,60,0
0,60,0
0,60,0
0,60,0
0,60,0
0,60,0
0,60,0
0,60,0
0,60,0
0,60,0
0,60,0
0,60,0
0,60,0
0,60,0
0,60,0
0,60,0
0,60,0
0,60,0
0,60,2
0,60,4
0,60,6
0,60,8
0,60,10
0,60,12
0,60,14
0,60,16
0,60,18
0,60,20
0,60,22
0,60,24
0,60,26
0,60,28
0,60,30
0,60,32
0,60,34
0,60,36
0,60,38
0,60,40
0,60,42
0,60,44
0,60,46
0,60,48
0,60,50
0,60,52
0,60,54
0,60,56
0,60,58
0,60,60
0,60,62
0,60,64
0,60,66
0,60,68
0,60,70
0,60,72
0,60,74
0,60,76
0,60,78
0,60,80
0,60,82
0,60,84
0,60,86
0,60,88
0,60,90
0,60,92
0,60,94
0,60,96
0,60,98
0,60,100
0,60,102
0,60,104
0,60,106
0,60,108
0,60,110
0,60,112
0,60,114
0,60,116
0,60,118
0,60,120
0,59.9401,122
0,59.9401,124
0,59.9401,126
0,59.9401,128
0,59.9401,130
0,59.9401,132
0,59.9401,134
0,59.9401,136
0,59.9401,138
0,59.9401,140
0,59.9401,142
0,59.9401,144
0,59.9401,146
0,59.9401,148
0,59.9401,150
0,59.9401,152
0,59.9401,154
0,59.9401,156
0,59.9401,158
0,59.9401,160
0,59.9401,162
0,59.9401,164
0,59.9401,166
0,59.9401,168
0,59.9401,170
0,59.9401,172
0,59.9401,174
0,59.9401,176
0,59.9401,178
0,59.9401,180
0,59.9401,182
1,59.9401,184
0,59.9401,186
0,59.9401,188
0,59.9401,190
0,59.9401,192
0,59.9401,194
0,59.9401,196
0,59.9401,198
0,59.9401,200
0,59.9401,202
0,59.9401,204
0,59.9401,206
0,59.9401,208
0,59.9401,210
0,59.9401,212
0,59.9401,214
0,59.9401,216
0,59.9401,218
0,59.9401,220
0,59.9401,222
0,59.9401,224
0,59.9401,226
0,59.9401,228
0,59.9401,230
0,59.9401,232
0,59.9401,234
0,59.9401,236
0,59.9401,238
0,59.9401,240
0,60,242
0,60,244
0,60,246
0,60,248
0,60,250
0,60,252
0,60,254
0,60,256
0,60,258
0,60,260
0,60,262
0,60,264
0,60,266
0,60,268
0,60,270
0,60,272
0,60,274
0,60,276
0,60,278
0,60,280
0,60,282
0,60,284
0,60,286
0,60,288
0,60,290
0,60,292
0,60,294
0,60,296
0,60,298
0,60,300
0,60,302
0,60,304
0,60,306
0,60,308
0,60,310
0,60,312
0,60,314
0,60,316
0,60,318
0,60,320
0,60,322
0,60,324
0,60,326
0,60,328
0,60,330
0,60,332
0,60,334
0,60,336
0,60,338
0,60,340
0,60,342
0,60,344
0,60,346
0,60,348
0,60,350
0,60,352
0,60,354
0,60,356
0,60,358
0,60,360
0,60,362
0,60,364
0,60,366
0,60,368
0,60,370
0,60,372
0,60,374
0,60,376
0,60,378
0,60,380
0,60,382
0,60,384
0,60,386
0,60,388
0,60,390
0,60,392
0,60,394
0,60,396
0,60,398
0,60,400
0,60,402
0,60,404
0,60,406
0,60,408
0,60,410
0,60,412
0,60,414
0,60,416
0,60,418
0,60,420
0,60,422
0,60,424
0,60,426
0,60,428
0,60,430
0,60,432
0,60,434
0,60,436
0,60,438
0,60,440
0,60,442
0,60,444
0,60,446
0,60,448
0,60,450
0,60,452
0,60,454
0,60,456
0,60,458
0,60,460
0,60,462
0,60,464
0,60,466
0,60,468
0,60,470
0,60,472
0,60,474
0,60,476
0,60,478
0,60,480
0,60,482
0,60,484
0,60,486
0,60,488
0,60,490
0,60,492
0,60,494
0,60,496
0,60,498
0,60,500
0,60,502
0,60,504
0,60,506
0,60,508
0,60,510
0,60,512
0,60,514
0,60,516
0,60,518
0,60,520
0,60,522
0,60,524
0,60,526
0,60,528
0,60,530
0,60,532
0,60,534
0,60,536
0,60,538
0,60,540
0,60,542
0,60,544
0,60,546
0,60,548
0,60,550
0,60,552
0,60,554
0,60,556
0,60,558
0,60,560
0,60,562
0,60,564
0,60,566
0,60,568
0,60,570
0,60,572
0,60,574
0,60,576
0,60,578
0,60,580
0,60,582
0,60,584
0,60,586
0,60,588
0,60,590
0,60,592
0,60,594
0,60,596
0,60,598
0,60,600
0,60,602
0,60,604
0,60,606
0,60,608
0,60,610
0,60,612
0,60,614
0,60,616
0,60,618
0,60,620
0,60,622
0,60,624
0,60,626
0,60,628
0,60,630
0,60,632
0,60,634
0,60,636
0,60,638
0,60,640
0,60,642
0,60,644
0,60,646
0,60,648
0,60,650
0,60,652
0,60,654
0,60,656
0,60,658
0,60,660
0,60,662
0,60,664
0,60,666
0,60,668
0,60,670
0,60,672
0,60,674
0,60,676
0,60,678
0,60,680
0,60,682
0,60,684
0,60,686
0,60,688
0,60,690
0,60,692
0,60,694
0,60,696
0,60,698
0,60,700
0,60,702
0,60,704
0,60,706
0,60,708
0,60,710
0,60,712
0,60,714
0,60,716
0,60,718
0,60,720
0,60,722
0,60,724
0,60,726
0,60,728
0,60,730
0,60,732
0,60,734
0,60,736
0,60,738
0,60,740
0,60,742
0,60,744
0,60,746
0,60,748
0,60,750
0,60,752
0,60,754
0,60,756
0,60,758
0,60,760
0,60,762
0,60,764
0,60,766
0,60,768
0,60,770
0,60,772
0,60,774
0,60,776
0,60,778
0,60,780
0,60,782
0,60,784
0,60,786
0,60,788
0,60,790
0,60,792
0,60,794
0,60,796
0,60,798
0,60,800
0,60,802
0,60,804
0,60,806
0,60,808
0,60,810
0,60,812
0,60,814
0,60,816
0,60,818
0,60,820
0,60,822
0,60,824
0,60,826
0,60,828
0,60,830
0,60,832
0,60,834
0,60,836
0,60,838
0,60,840
0,60,842
0,60,844
0,60,846
0,60,848
0,60,850
0,60,852
0,60,854
1,60,856
0,60,858
0,60,860
0,60,862
0,60,864
0,60,866
0,60,868
0,60,870
0,60,872
0,60,874
0,60,876
0,60,878
0,60,880
0,60,882
0,60,884
0,60,886
0,60,888
0,60,890
0,60,892
0,60,894
0,60,896
0,60,898
0,60,900
0,60,902
0,60,904
0,60,906
0,60,908
0,60,910
0,60,912
0,60,914
0,60,916
0,60,918
0,60,920
0,60,922
0,60,924
0,60,926
0,60,928
0,60,930
0,60,932
0,60,934
0,60,936
0,60,938
0,60,940
0,60,942
0,60,944
0,60,946
0,60,948
0,60,950
0,60,952
0,60,954
0,60,956
0,60,958
0,60,960
0,60,962
0,60,964
0,60,966
0,60,968
0,60,970
0,60,972
0,60,974
0,60,976
0,60,978
0,60,980
0,60,982
0,60,984
0,60,986
0,60,988
0,60,990
0,60,992
0,60,994
0,60,996
0,60,998
0,60,1000
0,60,1002
0,60,1004
0,60,1006
0,60,1008
0,60,1010
0,60,1012
0,60,1014
0,60,1016
0,60,1018
0,60,1020
0,60,1022
0,60,1024
0,60,1026
0,60,1028
0,60,1030
0,60,1032
0,60,1034
0,60,1036
0,60,1038
0,60,1040
0,60,1042
0,60,1044
0,60,1046
0,60,1048
0,60,1050
0,60,1052
0,60,1054
0,60,1056
0,60,1058
0,60,1060
0,60,1062
0,60,1064
0,60,1066
0,60,1068
0,60,1070
0,60,1072
0,60,1074
0,60,1076
0,60,1078
0,60,1080
0,60,1082
0,60,1084
0,60,1086
0,60,1088
0,60,1090
0,60,1092
0,60,1094
0,60,1096
0,60,1098
0,60,1100
0,60,1102
0,60,1104
0,60,1106
0,60,1108
0,60,1110
0,60,1112
0,60,1114
0,60,1116
0,60,1118
0,60,1120
0,60,1122
0,60,1124
0,60,1126
0,60,1128
0,60,1130
0,60,1132
0,60,1134
0,60,1136
0,60,1138
0,60,1140
0,60,1142
0,60,1144
0,60,1146
0,60,1148
0,60,1150
0,60,1152
0,60,1154
0,60,1156
1,60,1158
0,60,1160
0,60,1162
0,60,1164
0,60,1166
0,60,1168
0,60,1170
0,60,1172
0,60,1174
0,60,1176
0,60,1178
0,60,1180
0,60,1182
0,60,1184
0,60,1186
0,60,1188
1,60,1190
0,60,1192
0,60,1194
0,60,1196
0,60,1198
0,60,1200
0,60,1200
0,60,1200
0,60,1200
0,60,1200
0,60,1200
0,60,1200
0,60,1200
0,60,1200
0,60,1200
0,60,1200
0,60,1200
0,60,1200
0,60,1200
0,60,1200
0,60,1200
0,60,1200
0,60,1200
0,60,1200
0,60,1200
0,60,1200
0,60,1200
0,60,1200
0,60,1200
0,60,1200
0,60,1200
0,60,1200
0,60,1200
1,60,1200
0,60,1204
0,60,1208
0,60,1212
0,60,1216
2,60,1220
1,60,1224
0,60,1228
0,60,1232
0,60,1236
0,60,1240
1,60,1244
0,60,1248
0,60,1252
0,60,1256
0,60,1260
0,60,1264
0,60,1268
0,60,1272
0,60,1276
0,60,1280
0,60,1284
0,60,1288
0,60,1292
0,60,1296
0,60,1300
0,60,1304
0,60,1308
0,60,1312
1,60,1316
0,60,1320
0,60,1324
0,60,1328
0,60,1332
0,60,1336
0,60,1340
0,60,1344
0,60,1348
0,60,1352
0,60,1356
1,60,1360
0,60,1364
1,60,1368
0,60,1372
0,60,1376
0,60,1380
1,60,1384
0,60,1388
0,60,1392
0,60,1396
0,60,1400
0,60,1404
0,60,1408
0,60,1412
0,60,1416
0,60,1420
0,60,1424
4,60,1428
0,60,1432
0,60,1436
0,60,1440
0,60,1444
0,60,1448
0,60,1452
0,60,1456
0,60,1460
0,60,1464
0,60,1468
1,60,1472
1,60,1476
0,60,1480
0,60,1484
0,60,1488
0,60,1492
0,60,1496
0,60,1500
0,60,1504
0,60,1508
0,60,1512
0,60,1516
0,60,1520
0,60,1524
0,60,1528
0,60,1532
0,60,1536
0,60,1540
0,60,1544
0,60,1548
0,60,1552
0,60,1556
0,60,1560
1,60,1564
0,60,1568
0,60,1572
0,60,1576
0,60,1580
0,60,1584
0,60,1588
0,60,1592
1,60,1596
1,60,1600
1,60,1604
0,60,1608
0,60,1612
0,60,1616
0,60,1620
4,60,1624
0,60,1628
0,60,1632
0,60,1636
0,60,1640
0,60,1644
0,60,1648
3,60,1652
0,60,1656
0,60,1660
0,60,1664
0,60,1668
0,60,1672
0,60,1676
1,60,1680
1,59.9401,1684
0,59.9401,1688
0,59.9401,1692
0,59.9401,1696
0,59.9401,1700
0,59.9401,1704
0,59.9401,1708
0,59.9401,1712
0,59.9401,1716
0,59.9401,1720
0,59.9401,1724
0,59.9401,1728
0,59.9401,1732
0,59.9401,1736
0,59.9401,1740
1,59.9401,1744
0,59.9401,1748
0,59.9401,1752
0,59.9401,1756
0,59.9401,1760
0,59.9401,1764
2,59.9401,1768
0,59.9401,1772
0,59.9401,1776
0,59.9401,1780
1,59.9401,1784
0,59.9401,1788
1,59.9401,1792
1,59.9401,1796
0,59.9401,1800
1,59.9401,1804
1,59.9401,1808
0,59.9401,1812
1,59.9401,1816
1,59.9401,1820
0,59.9401,1824
1,59.9401,1828
1,59.9401,1832
1,59.9401,1836
1,59.9401,1840
0,59.9401,1844
0,59.9401,1848
0,59.9401,1852
0,59.9401,1856
1,59.9401,1860
1,59.9401,1864
0,59.9401,1868
1,59.9401,1872
1,59.9401,1876
1,59.9401,1880
1,59.9401,1884
1,59.9401,1888
1,59.9401,1892
1,59.9401,1896
1,59.9401,1900
1,59.9401,1904
1,59.9401,1908
1,59.9401,1912
1,59.9401,1916
1,59.9401,1920
1,60,1924
1,60,1928
1,60,1932
1,60,1936
1,60,1940
1,60,1944
1,60,1948
1,60,1952
1,60,1956
1,60,1960
1,60,1964
1,60,1968
1,60,1972
1,60,1976
1,60,1980
1,60,1984
1,60,1988
2,60,1992
1,60,1996
1,60,2000
1,60,2004
1,60,2008
1,60,2012
1,60,2016
1,60,2020
1,60,2024
1,60,2028
1,60,2032
1,60,2036
1,60,2040
1,60,2044
1,60,2048
1,60,2052
1,60,2056
1,60,2060
1,60,2064
1,60,2068
1,60,2072
1,60,2076
1,60,2080
1,60,2084
1,60,2088
1,60,2092
1,60,2096
1,60,2100
1,60,2104
1,60,2108
1,60,2112
1,60,2116
1,60,2120
1,60,2124
1,60,2128
1,60,2132
1,60,2136
1,60,2140
1,60,2144
1,60,2148
1,60,2152
1,60,2156
1,60,2160
1,60,2164
1,60,2168
1,60,2172
1,60,2176
1,60,2180
1,60,2184
1,60,2188
1,60,2192
1,60,2196
1,60,2200
1,60,2204
1,60,2208
1,60,2212
1,60,2216
1,60,2220
1,60,2224
1,60,2228
6,60,2232
1,60,2236
1,60,2240
1,60,2244
1,60,2248
1,60,2252
1,60,2256
1,60,2260
1,60,2264
1,60,2268
1,60,2272
1,60,2276
1,60,2280
4,60,2284
1,60,2288
1,60,2292
1,60,2296
1,60,2300
1,60,2304
1,60,2308
1,60,2312
1,60,2316
1,60,2320
1,60,2324
1,60,2328
1,60,2332
1,60,2336
1,60,2340
1,60,2344
1,60,2348
1,60,2352
1,60,2356
1,60,2360
1,60,2364
1,60,2368
1,60,2372
1,60,2376
1,60,2380
1,60,2384
1,60,2388
1,60,2392
1,60,2396
1,60,2400
1,60,2404
1,60,2408
1,60,2412
4,60,2416
1,60,2420
1,60,2424
1,60,2428
1,60,2432
1,60,2436
1,60,2440
1,60,2444
1,60,2448
1,60,2452
1,60,2456
1,60,2460
1,60,2464
1,60,2468
1,60,2472
1,60,2476
1,60,2480
1,60,2484
1,60,2488
1,60,2492
1,60,2496
1,60,2500
1,60,2504
1,60,2508
1,60,2512
1,60,2516
1,60,2520
1,60,2524
1,60,2528
1,60,2532
1,60,2536
1,60,2540
4,60,2544
1,60,2548
1,60,2552
1,60,2556
1,60,2560
1,60,2564
1,60,2568
2,60,2572
1,60,2576
1,60,2580
1,60,2584
1,60,2588
1,60,2592
1,60,2596
1,60,2600
1,60,2604
1,60,2608
1,60,2612
1,60,2616
1,60,2620
1,60,2624
1,60,2628
1,60,2632
1,60,2636
1,60,2640
1,60,2644
1,60,2648
1,60,2652
1,60,2656
1,60,2660
1,60,2664
1,60,2668
1,60,2672
1,60,2676
1,60,2680
1,60,2684
1,60,2688
1,60,2692
1,60,2696
2,60,2700
1,60,2704
1,60,2708
1,60,2712
1,60,2716
1,60,2720
1,60,2724
1,60,2728
1,60,2732
1,60,2736
1,60,2740
1,60,2744
1,60,2748
7,60,2752
1,60,2756
1,60,2760
1,60,2764
1,60,2768
1,60,2772
1,60,2776
1,60,2780
1,60,2784
1,60,2788
1,60,2792
1,60,2796
1,60,2800
1,60,2804
1,60,2808
1,60,2812
1,60,2816
1,60,2820
1,60,2824
1,60,2828
1,60,2832
1,60,2836
1,60,2840
1,60,2844
1,60,2848
1,60,2852
3,60,2856
1,60,2860
1,60,2864
1,60,2868
1,60,2872
1,60,2876
1,60,2880
1,60,2884
1,60,2888
1,60,2892
1,60,2896
1,60,2900
1,60,2904
1,60,2908
9,60,2912
1,60,2916
1,60,2920
1,60,2924
1,60,2928
2,60,2932
1,60,2936
2,60,2940
1,60,2944
1,60,2948
1,60,2952
1,60,2956
1,60,2960
1,60,2964
4,60,2968
2,60,2972
1,60,2976
1,60,2980
1,60,2984
1,60,2988
1,60,2992
1,60,2996
1,60,3000
2,60,3004
2,60,3008
1,60,3012
1,60,3016
1,60,3020
2,60,3024
1,60,3028
1,60,3032
1,60,3036
2,60,3040
1,60,3044
1,60,3048
1,60,3052
1,60,3056
1,60,3060
1,60,3064
1,60,3068
1,60,3072
1,60,3076
1,60,3080
1,60,3084
1,60,3088
1,60,3092
1,60,3096
1,60,3100
1,60,3104
1,60,3108
1,60,3112
1,60,3116
1,60,3120
4,60,3124
1,60,3128
1,60,3132
1,60,3136
1,60,3140
1,60,3144
1,60,3148
2,60,3152
1,60,3156
1,60,3160
1,60,3164
1,60,3168
1,60,3172
1,60,3176
1,60,3180
12,60,3184
2,60,3188
1,60,3192
1,60,3196
1,60,3200
1,60,3204
1,60,3208
6,60,3212
1,60,3216
1,60,3220
1,60,3224
1,60,3228
1,60,3232
2,60,3236
8,60,3240
1,60,3244
1,60,3248
2,60,3252
1,60,3256
1,60,3260
1,60,3264
2,60,3268
1,60,3272
1,60,3276
1,60,3280
1,60,3284
1,60,3288
1,60,3292
2,60,3296
1,60,3300
1,60,3304
2,60,3308
1,60,3312
1,60,3316
1,60,3320
2,60,3324
1,60,3328
1,60,3332
1,60,3336
1,60,3340
1,60,3344
2,60,3348
1,60,3352
2,60,3356
1,60,3360
1,59,3364
1,59,3368
1,59,3372
1,59,3376
1,59,3380
1,59,3384
1,59,3388
1,59,3392
1,59,3396
1,59,3400
1,59,3404
1,59,3408
2,59,3412
1,59,3416
1,59,3420
1,59,3424
1,59,3428
1,59,3432
1,59,3436
1,59,3440
2,59,3444
1,59,3448
1,59,3452
1,59,3456
1,59,3460
1,59,3464
1,59,3468
1,59,3472
1,59,3476
1,59,3480
1,59,3484
1,59,3488
2,59,3492
1,59,3496
1,59,3500
2,59,3504
1,59,3508
1,59,3512
1,59,3516
2,59,3520
1,59,3524
1,59,3528
1,59,3532
1,59,3536
1,59,3540
2,59,3544
2,59,3548
2,59,3552
1,59,3556
1,59,3560
1,59,3564
1,59,3568
1,59,3572
2,59,3576
1,59,3580
1,59,3584
1,59,3588
2,59,3592
3,59,3596
2,59,3600
1,59.9401,3600
1,59.9401,3600
1,59.9401,3600
1,59.9401,3600
5,59.9401,3600
1,59.9401,3600
1,59.9401,3600
1,59.9401,3600
1,59.9401,3600
1,59.9401,3600
1,59.9401,3600
5,59.9401,3600
1,59.9401,3600
1,59.9401,3600
2,59.9401,3600
1,59.9401,3600
1,59.9401,3600
1,59.9401,3600
1,59.9401,3600
1,59.9401,3600
1,59.9401,3600
2,59.9401,3600
2,59.9401,3600
1,59.9401,3600
2,59.9401,3603
2,59.9401,3606
2,59.9401,3609
4,59.9401,3612
3,59.9401,3616
3,59.9401,3620
3,59.9401,3624
3,59.9401,3628
2,59.9401,3631
2,59.9401,3634
2,59.9401,3637
3,59.9401,3641
3,59.9401,3645
3,59.9401,3649
2,59.9401,3652
3,59.9401,3656
2,59.9401,3659
3,59.9401,3663
3,59.9401,3667
2,59.9401,3670
2,59.9401,3673
3,59.9401,3677
3,59.9401,3681
2,59.9401,3684
2,59.9401,3687
3,59.9401,3691
2,59.9401,3694
2,59.9401,3697
2,59.9401,3700
3,59.9401,3703
2,59.9401,3706
3,59.9401,3710
3,59.9401,3714
3,59.9401,3717
2,59.9401,3720
3,59.9401,3724
3,59.9401,3728
3,59.9401,3732
2,59.9401,3735
3,59.9401,3739
6,59.9401,3743
3,59.9401,3746
3,59.9401,3750
3,59.9401,3753
3,59.9401,3757
3,59.9401,3761
3,59.9401,3764
3,59.9401,3768
3,59.9401,3771
2,59.9401,3774
3,59.9401,3778
2,59.9401,3781
4,59.9401,3785
3,59.9401,3788
2,59.9401,3791
3,59.9401,3795
2,59.9401,3798
3,59.9401,3802
4,59.9401,3806
2,59.9401,3809
2,59.8802,3812
3,59.8802,3816
3,59.8802,3820
3,59.8802,3823
3,59.8802,3827
3,59.8802,3830
3,59.8802,3834
3,59.8802,3838
3,59.8802,3842
3,59.8802,3845
6,59.8802,3849
3,59.8802,3853
3,59.8802,3857
3,59.8802,3860
3,59.8802,3864
3,59.8802,3868
3,59.8802,3871
2,59.8802,3874
2,59.8802,3877
3,59.8802,3881
3,59.8802,3884
3,59.8802,3887
4,59.8802,3891
3,59.8802,3895
3,59.8802,3898
3,59.8802,3901
3,59.8802,3904
3,59.8802,3907
3,59.8802,3911
3,59.8802,3914
3,59.8802,3917
3,59.8802,3921
3,59.8802,3924
3,59.8802,3927
3,59.8802,3931
3,59.8802,3934
3,59.8802,3937
3,59.8802,3940
3,59.8802,3943
3,59.8802,3946
3,59.8802,3950
3,59.8802,3953
3,59.8802,3956
3,59.8802,3959
3,59.8802,3963
3,59.8802,3967
3,59.8802,3971
3,59.8802,3974
3,59.8802,3978
3,59.8802,3982
4,59.8802,3986
3,59.8802,3989
3,59.8802,3992
3,59.8802,3995
3,59.8802,3999
3,59.8802,4002
3,59.8802,4006
3,59.8802,4009
3,59.8802,4012
3,59.8802,4016
3,59.9401,4020
5,59.9401,4023
3,59.9401,4027
3,59.9401,4031
3,59.9401,4035
3,59.9401,4039
3,59.9401,4042
3,59.9401,4046
3,59.9401,4049
3,59.9401,4053
3,59.9401,4057
3,59.9401,4060
3,59.9401,4064
3,59.9401,4067
3,59.9401,4070
3,59.9401,4073
3,59.9401,4077
3,59.9401,4081
3,59.9401,4084
3,59.9401,4087
3,59.9401,4091
3,59.9401,4094
3,59.9401,4098
3,59.9401,4102
3,59.9401,4105
3,59.9401,4108
3,59.9401,4111
3,59.9401,4115
3,59.9401,4119
3,59.9401,4123
3,59.9401,4127
3,59.9401,4131
3,59.9401,4135
3,59.9401,4139
3,59.9401,4142
3,59.9401,4145
3,59.9401,4149
4,59.9401,4153
3,59.9401,4157
3,59.9401,4160
3,59.9401,4163
3,59.9401,4167
3,59.9401,4171
3,59.9401,4174
3,59.9401,4177
3,59.9401,4181
3,59.9401,4184
3,59.9401,4188
3,59.9401,4191
3,59.9401,4195
3,59.9401,4198
3,59.9401,4201
3,59.9401,4204
3,59.9401,4207
4,59.9401,4210
3,59.9401,4213
3,59.9401,4217
3,59.9401,4220
3,59.9401,4224
3,59.9401,4227
7,60,4230
3,60,4233
3,60,4237
3,60,4241
3,60,4245
3,60,4248
6,60,4251
3,60,4255
3,60,4259
3,60,4263
3,60,4266
3,60,4270
3,60,4274
3,60,4278
3,60,4281
3,60,4285
3,60,4288
3,60,4292
5,60,4296
3,60,4299
3,60,4302
3,60,4306
3,60,4309
3,60,4312
3,60,4316
3,60,4320
3,60,4324
3,60,4328
3,60,4331
3,60,4334
4,60,4338
3,60,4342
3,60,4346
3,60,4349
3,60,4353
3,60,4356
4,60,4360
3,60,4363
3,60,4367
3,60,4370
3,60,4374
3,60,4377
4,60,4381
3,60,4384
3,60,4387
3,60,4391
3,60,4395
3,60,4399
3,60,4403
3,60,4406
3,60,4409
3,60,4413
3,60,4416
3,60,4419
3,60,4422
7,60,4425
3,60,4428
3,60,4432
3,60,4435
3,60,4439
3,60,4442
3,60,4445
3,60,4449
3,60,4453
3,60,4456
3,60,4459
3,60,4463
3,60,4466
3,60,4469
3,60,4472
4,60,4475
3,60,4478
3,60,4482
5,60,4486
3,60,4489
3,60,4492
3,60,4495
3,60,4498
3,60,4502
3,60,4505
3,60,4509
3,60,4513
3,60,4517
3,60,4521
3,60,4525
4,60,4529
3,60,4532
3,60,4536
3,60,4540
3,60,4544
3,60,4547
4,60,4551
3,60,4555
3,60,4559
3,60,4562
3,60,4566
3,60,4570
3,60,4573
3,60,4576
3,60,4579
3,60,4582
4,60,4586
3,60,4589
3,60,4593
4,60,4597
4,60,4601
4,60,4605
3,60,4608
3,60,4611
3,60,4615
4,60,4619
3,60,4622
3,60,4625
3,60,4628
3,60,4631
3,60,4634
13,60,4637
4,60,4640
3,60,4643
3,60,4646
4,60,4650
3,60,4653
5,60,4657
4,60,4661
3,60,4664
3,60,4667
3,60,4670
4,60,4674
4,60,4677
3,60,4680
4,60,4684
4,60,4688
3,60,4691
4,60,4695
5,60,4698
4,60,4702
3,60,4705
3,60,4708
3,60,4711
3,60,4714
3,60,4717
3,60,4720
3,60,4723
3,60,4726
4,60,4730
3,60,4733
4,60,4737
4,60,4740
3,60,4744
3,60,4747
3,60,4750
3,60,4753
4,60,4757
4,60,4761
3,60,4764
3,60,4767
3,60,4770
3,60,4773
4,60,4777
4,60,4781
3,60,4784
3,60,4787
4,60,4791
3,60,4794
4,60,4798
8,60,4802
4,60,4806
4,60,4810
4,60,4814
4,60,4818
3,60,4821
9,60,4824
4,60,4828
3,60,4831
4,60,4835
4,60,4839
3,60,4842
8,60,4845
4,60,4848
3,60,4851
4,60,4855
3,60,4858
4,60,4862
3,60,4865
4,60,4869
3,60,4872
3,60,4875
4,60,4879
3,60,4882
4,60,4886
4,60,4889
4,60,4893
4,60,4897
4,60,4901
4,60,4905
3,60,4908
3,60,4911
3,60,4914
3,60,4917
4,60,4921
4,60,4925
3,60,4928
4,60,4932
3,60,4935
4,60,4939
3,60,4942
4,60,4946
4,60,4950
4,60,4953
3,60,4956
3,60,4959
4,60,4963
3,60,4966
4,60,4970
3,60,4973
3,60,4976
3,60,4979
3,60,4982
4,60,4986
4,60,4990
4,60,4994
3,60,4997
3,60,5000
5,60,5003
4,60,5006
4,60,5009
4,60,5013
11,60,5016
4,60,5020
5,60,5023
5,60,5026
4,60,5030
4,60,5034
3,60,5037
3,60,5040
18,60,5044
5,60,5048
3,60,5051
3,60,5054
5,60,5058
3,58.8822,5061
4,58.8822,5064
13,58.8822,5068
4,58.8822,5071
4,58.8822,5074
4,58.8822,5077
4,58.8822,5081
3,58.8822,5084
4,58.8822,5087
7,58.8822,5091
4,58.8822,5095
4,58.8822,5098
3,58.8822,5101
4,58.8822,5104
4,58.8822,5108
14,58.8822,5112
4,58.8822,5115
3,58.8822,5118
4,58.8822,5122
3,58.8822,5125
3,58.8822,5128
4,58.8822,5131
4,58.8822,5134
5,58.8822,5137
4,58.8822,5141
4,58.8822,5145
4,58.8822,5149
4,58.8822,5153
4,58.8822,5157
4,58.8822,5160
4,58.8822,5163
4,58.8822,5167
4,58.8822,5170
4,58.8822,5173
4,58.8822,5177
4,58.8822,5181
7,58.8822,5185
5,58.8822,5189
4,58.8822,5193
4,58.8822,5196
4,58.8822,5199
4,58.8822,5202
4,58.8822,5205
5,58.8822,5209
4,58.8822,5213
4,58.8822,5216
4,58.8822,5220
4,58.8822,5224
4,58.8822,5227
8,58.8822,5231
4,58.8822,5235
4,58.8822,5239
4,58.8822,5242
4,58.8822,5245
4,58.8822,5249
7,58.8822,5252
4,58.8822,5255
4,58.8822,5258
4,58.8822,5261
4,58.8822,5265
4,58.8822,5268
4,60.0394,5272
18,60.0394,5276
4,60.0394,5280
4,60.0394,5283
4,60.0394,5287
4,60.0394,5291
4,60.0394,5294
4,60.0394,5297
4,60.0394,5300
4,60.0394,5304
4,60.0394,5307
4,60.0394,5310
5,60.0394,5313
4,60.0394,5316
4,60.0394,5319
4,60.0394,5322
4,60.0394,5325
4,60.0394,5328
4,60.0394,5331
4,60.0394,5334
4,60.0394,5338
4,60.0394,5342
4,60.0394,5345
4,60.0394,5349
4,60.0394,5353
4,60.0394,5356
4,60.0394,5360
4,60.0394,5363
4,60.0394,5366
4,60.0394,5369
4,60.0394,5373
4,60.0394,5377
4,60.0394,5380
4,60.0394,5383
4,60.0394,5386
4,60.0394,5390
4,60.0394,5394
4,60.0394,5397
4,60.0394,5400
4,60.0394,5404
4,60.0394,5407
4,60.0394,5410
4,60.0394,5413
4,60.0394,5416
4,60.0394,5419
6,60.0394,5422
4,60.0394,5425
4,60.0394,5428
4,60.0394,5432
4,60.0394,5436
4,60.0394,5440
4,60.0394,5443
4,60.0394,5446
4,60.0394,5450
4,60.0394,5454
4,60.0394,5458
4,60.0394,5461
4,60.0394,5464
6,60.0394,5468
4,60.0394,5471
4,59,5475
4,59,5478
4,59,5482
4,59,5485
5,59,5489
4,59,5493
4,59,5497
4,59,5500
4,59,5504
4,59,5507
6,59,5511
4,59,5514
4,59,5518
4,59,5522
5,59,5526
4,59,5530
4,59,5533
4,59,5537
4,59,5541
4,59,5545
4,59,5548
5,59,5552
5,59,5555
4,59,5559
4,59,5563
4,59,5566
10,59,5570
4,59,5573
5,59,5577
6,59,5581
4,59,5585
4,59,5589
5,59,5593
4,59,5596
4,59,5600
4,59,5604
4,59,5607
5,59,5611
4,59,5615
4,59,5618
4,59,5621
4,59,5624
4,59,5628
4,59,5632
4,59,5636
4,59,5639
5,59,5643
4,59,5647
4,59,5651
4,59,5654
5,59,5658
4,59,5661
12,59,5665
4,59,5668
4,59,5672
4,59,5675
4,59,5678
4,59,5682
4,59,5685
6,59,5685
4,59.8802,5686
5,59.8802,5687
4,59.8802,5687
4,59.8802,5687
4,59.8802,5686
4,59.8802,5685
4,59.8802,5684
5,59.8802,5685
4,59.8802,5685
4,59.8802,5685
4,59.8802,5684
5,59.8802,5684
5,59.8802,5684
4,59.8802,5685
4,59.8802,5684
5,59.8802,5685
5,59.8802,5685
4,59.8802,5684
4,59.8802,5684
4,59.8802,5685
4,59.8802,5684
4,59.8802,5684
5,59.8802,5685
5,59.8802,5686
4,59.8802,5686
4,59.8802,5686
4,59.8802,5686
5,59.8802,5686
4,59.8802,5686
4,59.8802,5687
4,59.8802,5686
4,59.8802,5686
4,59.8802,5686
4,59.8802,5687
4,59.8802,5686
4,59.8802,5685
5,59.8802,5685
4,59.8802,5685
4,59.8802,5684
4,59.8802,5683
4,59.8802,5683
5,59.8802,5683
5,59.8802,5684
4,59.8802,5683
4,59.8802,5682
4,59.8802,5682
6,59.8802,5682
4,59.8802,5683
5,59.8802,5684
4,59.8802,5683
4,59.8802,5684
4,59.8802,5683
4,59.8802,5684
5,59.8802,5685
4,59.8802,5685
4,59.8802,5686
4,59.8802,5685
4,59.8802,5684
5,59.8802,5685
6,59.8802,5686
4,60,5685
4,60,5684
4,60,5684
4,60,5683
4,60,5684
4,60,5683
4,60,5683
5,60,5683
6,60,5686
6,60,5688
11,60,5690
6,60,5692
6,60,5695
5,60,5697
10,60,5699
6,60,5702
5,60,5705
5,60,5708
5,60,5710
5,60,5713
5,60,5716
5,60,5718
6,60,5720
5,60,5723
6,60,5726
5,60,5729
5,60,5732
5,60,5734
9,60,5737
6,60,5740
6,60,5742
6,60,5745
6,60,5748
7,60,5750
11,60,5753
7,60,5756
6,60,5759
6,60,5762
5,60,5765
6,60,5767
6,60,5770
5,60,5773
6,60,5776
6,60,5778
6,60,5780
6,60,5782
6,60,5785
8,60,5787
5,60,5789
5,60,5791
6,60,5794
9,60,5797
6,60,5800
8,60,5802
6,60,5805
5,60,5807
6,60,5810
6,60,5813
5,60,5815
6,60,5817
5,60,5820
5,60,5822
7,60,5824
5,60,5826
5,60,5828
6,60,5831
6,60,5833
5,60,5836
5,59.6421,5838
5,59.6421,5840
6,59.6421,5843
6,59.6421,5845
6,59.6421,5848
6,59.6421,5851
5,59.6421,5854
5,59.6421,5856
6,59.6421,5858
6,59.6421,5861
5,59.6421,5864
6,59.6421,5866
5,59.6421,5869
7,59.6421,5871
6,59.6421,5873
6,59.6421,5876
6,59.6421,5879
5,59.6421,5882
5,59.6421,5884
6,59.6421,5886
6,59.6421,5888
6,59.6421,5890
5,59.6421,5892
6,59.6421,5894
6,59.6421,5896
6,59.6421,5899
6,59.6421,5902
6,59.6421,5904
6,59.6421,5906
6,59.6421,5908
6,59.6421,5911
9,59.6421,5914
5,59.6421,5916
6,59.6421,5918
6,59.6421,5921
6,59.6421,5924
6,59.6421,5926
6,59.6421,5929
8,59.6421,5931
6,59.6421,5934
6,59.6421,5936
6,59.6421,5939
5,59.6421,5942
6,59.6421,5945
6,59.6421,5948
5,59.6421,5951
6,59.6421,5954
6,59.6421,5956
5,59.6421,5959
5,59.6421,5961
6,59.6421,5964
6,59.6421,5967
6,59.6421,5970
6,59.6421,5972
6,59.6421,5974
6,59.6421,5976
7,59.6421,5979
6,59.6421,5982
6,59.6421,5984
6,59.6421,5986
6,59.9401,5988
6,59.9401,5991
6,59.9401,5993
6,59.9401,5995
6,59.9401,5997
5,59.9401,6000
6,59.9401,6002
7,59.9401,6005
7,59.9401,6007
6,59.9401,6009
6,59.9401,6012
6,59.9401,6015
6,59.9401,6017
6,59.9401,6020
6,59.9401,6023
6,59.9401,6025
6,59.9401,6027
6,59.9401,6029
6,59.9401,6031
7,59.9401,6034
6,59.9401,6037
10,59.9401,6039
7,59.9401,6041
6,59.9401,6043
6,59.9401,6046
6,59.9401,6048
6,59.9401,6051
6,59.9401,6053
9,59.9401,6056
6,59.9401,6058
6,59.9401,6061
6,59.9401,6063
6,59.9401,6066
6,59.9401,6068
6,59.9401,6071
6,59.9401,6074
6,59.9401,6076
6,59.9401,6078
6,59.9401,6080
7,59.9401,6082
6,59.9401,6085
6,59.9401,6088
6,59.9401,6090
6,59.9401,6093
6,59.9401,6096
6,59.9401,6099
6,59.9401,6102
6,59.9401,6105
6,59.9401,6107
6,59.9401,6110
6,59.9401,6112
6,59.9401,6115
6,59.9401,6118
7,59.9401,6120
6,59.9401,6122
6,59.9401,6125
6,59.9401,6128
6,59.9401,6130
6,59.9401,6133
7,59.9401,6136
6,59.9401,6139
6,59.9401,6142
6,59.9401,6145
6,59.9401,6147
6,59.9401,6149
6,59.9401,6152
6,59.9401,6155
6,59.9401,6158
6,59.9401,6161
6,59.9401,6163
6,59.9401,6166
9,59.9401,6168
6,59.9401,6170
6,59.9401,6172
6,59.9401,6174
6,59.9401,6176
7,59.9401,6178
6,59.9401,6181
11,59.9401,6183
6,59.9401,6185
6,59.9401,6187
6,59.9401,6190
6,59.9401,6192
6,59.9401,6194
6,59.9401,6196
32,59.9401,6199
7,59.9401,6201
6,59.9401,6203
6,59.9401,6206
7,59.9401,6209
6,59.9401,6212
6,59.9401,6215
6,59.9401,6217
41,59.9401,6220
8,59.9401,6222
7,59.9401,6224
6,59.9401,6226
7,59.9401,6228
6,59.9401,6231
8,59.9401,6234
10,59.9401,6236
6,59.9401,6238
6,59.9401,6241
6,59.9401,6244
7,59.9401,6247
13,59.9401,6250
6,59.9401,6253
13,59.9401,6256
7,59.9401,6259
7,59.9401,6262
6,59.9401,6265
7,59.9401,6267
6,59.9401,6270
6,59.9401,6272
10,59.9401,6274
6,59.9401,6277
6,59.9401,6280
6,59.9401,6283
6,59.9401,6285
6,59.9401,6288
6,59.9401,6291
6,52.2167,6293
6,52.2167,6295
6,52.2167,6298
6,52.2167,6300
6,52.2167,6303
6,52.2167,6305
6,52.2167,6308
7,52.2167,6311
7,52.2167,6314
6,52.2167,6317
6,52.2167,6320
6,52.2167,6323
7,52.2167,6326
6,52.2167,6329
20,52.2167,6331
8,52.2167,6334
8,52.2167,6336
6,52.2167,6339
6,52.2167,6341
6,52.2167,6344
6,52.2167,6347
6,52.2167,6350
6,52.2167,6352
7,52.2167,6354
6,52.2167,6357
7,52.2167,6360
6,52.2167,6363
7,52.2167,6366
6,52.2167,6368
6,52.2167,6370
6,52.2167,6373
7,52.2167,6376
6,52.2167,6378
6,52.2167,6381
6,52.2167,6383
6,52.2167,6385
6,52.2167,6387
6,52.2167,6389
6,52.2167,6391
6,52.2167,6393
6,52.2167,6396
6,52.2167,6399
8,52.2167,6401
6,52.2167,6404
6,52.2167,6406
6,52.2167,6408
6,52.2167,6411
6,52.2167,6414
8,52.2167,6417
6,52.2167,6420
6,52.2167,6422
6,52.2167,6425
6,52.2167,6427
6,52.2167,6430
6,52.2167,6432
7,52.2167,6435
6,52.2167,6438
6,52.2167,6440
6,52.2167,6443
6,52.2167,6445
6,55,6448
6,55,6450
6,55,6452
6,55,6454
6,55,6456
6,55,6459
6,55,6462
10,55,6465
6,55,6468
6,55,6470
6,55,6472
6,55,6475
6,55,6477
14,55,6480
6,55,6482
6,55,6485
6,55,6487
6,55,6489
6,55,6492
6,55,6495
7,55,6498
6,55,6500
6,55,6503
6,55,6505
6,55,6508
6,55,6511
9,55,6514
6,55,6517
6,55,6519
6,55,6521
6,55,6523
6,55,6526
6,55,6529
6,55,6532
6,55,6535
6,55,6538
6,55,6540
7,55,6543
7,55,6545
6,55,6548
6,55,6551
6,55,6553
6,55,6555
6,55,6558
7,55,6561
6,55,6563
6,55,6565
6,55,6568
6,55,6571
6,55,6573
6,55,6576
6,55,6579
6,55,6581
7,55,6584
6,55,6587
6,55,6590
7,55,6592
6,55,6595
6,55,6598
6,55,6600
6,59,6602
6,59,6605
7,59,6608
7,59,6611
6,59,6613
6,59,6615
6,59,6618
6,59,6621
6,59,6623
7,59,6626
6,59,6629
6,59,6632
6,59,6635
6,59,6638
7,59,6640
7,59,6642
6,59,6644
6,59,6646
6,59,6648
6,59,6651
7,59,6654
10,59,6656
6,59,6659
6,59,6662
7,59,6664
7,59,6666
7,59,6668
6,59,6670
6,59,6672
6,59,6675
6,59,6678
6,59,6681
7,59,6684
7,59,6686
6,59,6688
7,59,6691
7,59,6693
7,59,6695
6,59,6698
6,59,6700
6,59,6702
7,59,6704
6,59,6707
6,59,6710
7,59,6712
6,59,6715
6,59,6718
6,59,6721
7,59,6724
6,59,6726
7,59,6729
8,59,6731
6,59,6733
6,59,6735
7,59,6738
6,59,6740
7,59,6742
6,59,6745
9,59,6748
6,59,6751
6,60,6753
7,60,6756
7,60,6759
6,60,6762
7,60,6765
7,60,6768
6,60,6771
7,60,6774
7,60,6777
9,60,6780
7,60,6783
6,60,6785
7,60,6787
7,60,6790
7,60,6792
11,60,6794
6,60,6797
6,60,6799
7,60,6802
7,60,6805
6,60,6808
6,60,6810
6,60,6812
6,60,6815
7,60,6818
7,60,6821
6,60,6823
7,60,6825
6,60,6828
9,60,6831
7,60,6833
9,60,6836
7,60,6839
7,60,6842
6,60,6845
7,60,6848
7,60,6851
7,60,6854
7,60,6857
7,60,6859
6,60,6861
7,60,6863
7,60,6866
7,60,6869
12,60,6871
7,60,6873
6,60,6875
7,60,6878
7,60,6881
6,60,6883
7,60,6886
14,60,6888
7,60,6891
6,60,6893
7,60,6896
6,60,6898
6,60,6900
7,60,6902
8,60,6905
6,60,6907
7,60,6910
7,60,6912
6,60,6915
7,60,6917
10,60,6919
7,60,6921
7,60,6923
7,60,6926
7,60,6928
7,60,6930
7,60,6932
8,60,6935
6,60,6937
6,60,6940
7,60,6942
7,60,6944
7,60,6947
25,60,6949
11,60,6952
7,60,6954
7,60,6956
7,60,6958
7,60,6960
7,60,6962
7,60,6965
7,60,6967
7,60,6969
7,60,6972
7,60,6974
7,60,6976
7,60,6979
12,60,6982
7,60,6985
7,60,6987
7,60,6989
6,60,6991
7,60,6994
7,60,6996
7,60,6998
7,60,7000
7,60,7003
7,60,7005
7,60,7008
7,60,7010
10,60,7013
6,60,7015
7,60,7018
7,60,7021
7,60,7023
7,60,7026
12,60,7029
7,60,7031
7,60,7033
7,60,7036
7,60,7038
7,60,7041
7,60,7044
7,60,7047
7,60,7049
7,60,7052
7,57.9421,7055
7,57.9421,7058
7,57.9421,7060
7,57.9421,7062
7,57.9421,7064
7,57.9421,7067
8,57.9421,7069
7,57.9421,7071
7,57.9421,7074
7,57.9421,7077
7,57.9421,7079
7,57.9421,7082
7,57.9421,7084
7,57.9421,7086
7,57.9421,7088
7,57.9421,7090
7,57.9421,7093
7,57.9421,7096
7,57.9421,7099
7,57.9421,7102
7,57.9421,7104
10,57.9421,7107
7,57.9421,7109
7,57.9421,7112
7,57.9421,7114
7,57.9421,7117
7,57.9421,7120
7,57.9421,7122
7,57.9421,7125
7,57.9421,7128
7,57.9421,7131
7,57.9421,7134
7,57.9421,7136
7,57.9421,7138
8,57.9421,7141
7,57.9421,7144
7,57.9421,7147
7,57.9421,7149
7,57.9421,7151
7,57.9421,7153
7,57.9421,7156
7,57.9421,7158
7,57.9421,7161
7,57.9421,7163
7,57.9421,7165
7,57.9421,7167
7,57.9421,7169
7,57.9421,7172
7,57.9421,7175
7,57.9421,7177
7,57.9421,7179
7,57.9421,7182
7,57.9421,7185
7,57.9421,7188
7,57.9421,7191
7,57.9421,7193
7,57.9421,7196
7,57.9421,7198
7,57.9421,7200
7,57.9421,7200
8,59.9401,7200
7,59.9401,7200
7,59.9401,7200
7,59.9401,7200
7,59.9401,7200
11,59.9401,7200
7,59.9401,7200
10,59.9401,7200
7,59.9401,7200
11,59.9401,7200
7,59.9401,7200
8,59.9401,7200
7,59.9401,7200
7,59.9401,7200
9,59.9401,7200
10,59.9401,7200
9,59.9401,7200
7,59.9401,7200
9,59.9401,7200
7,59.9401,7200
7,59.9401,7200
7,59.9401,7200
7,59.9401,7200
9,59.9401,7200
7,59.9401,7200
7,59.9401,7200
7,59.9401,7200
7,59.9401,7200
7,59.9401,7200
10,59.9401,7200
7,59.9401,7200
14,59.9401,7204
15,59.9401,7208
14,59.9401,7212
9,59.9401,7216
9,59.9401,7220
12,59.9401,7224
10,59.9401,7228
10,59.9401,7232
10,59.9401,7236
9,59.9401,7240
11,59.9401,7244
10,59.9401,7248
19,59.9401,7252
11,59.9401,7256
10,59.9401,7260
9,59.9401,7264
10,59.9401,7268
10,59.9401,7272
9,59.9401,7276
9,59.9401,7280
11,59.9401,7284
10,59.9401,7288
11,59.9401,7292
10,59.9401,7296
10,59.9401,7300
10,59.9401,7304
10,59.9401,7308
10,59.9401,7312
10,59.9401,7316
10,59.9401,7320
10,59.9401,7324
9,59.9401,7328
19,59.9401,7332
11,59.9401,7336
9,59.9401,7340
9,59.9401,7344
10,59.9401,7348
9,59.9401,7352
30,59.9401,7356
11,59.9401,7360
9,59.9401,7364
10,59.9401,7368
10,59.9401,7372
9,59.9401,7376
10,59.9401,7380
10,59.9401,7384
12,59.9401,7388
10,59.9401,7392
10,59.9401,7396
10,59.9401,7400
11,59.9401,7404
10,59.9401,7408
10,59.9401,7412
10,59.9401,7416
9,59.9401,7420
10,59.9401,7424
9,59.9401,7428
10,59.9401,7432
12,59.9401,7436
10,59.9401,7440
10,52.4233,7444
9,52.4233,7448
10,52.4233,7452
10,52.4233,7456
11,52.4233,7460
10,52.4233,7464
10,52.4233,7468
10,52.4233,7472
9,52.4233,7476
10,52.4233,7480
18,52.4233,7484
15,52.4233,7488
12,52.4233,7492
9,52.4233,7496
9,52.4233,7500
10,52.4233,7504
10,52.4233,7508
15,52.4233,7512
10,52.4233,7516
11,52.4233,7520
10,52.4233,7524
10,52.4233,7528
10,52.4233,7532
15,52.4233,7536
19,52.4233,7540
14,52.4233,7544
23,52.4233,7548
11,52.4233,7552
10,52.4233,7556
10,52.4233,7560
10,52.4233,7564
10,52.4233,7568
10,52.4233,7572
16,52.4233,7576
11,52.4233,7580
11,52.4233,7584
10,52.4233,7588
10,52.4233,7592
10,52.4233,7596
10,52.4233,7600
10,52.4233,7604
10,52.4233,7608
10,52.4233,7612
10,52.4233,7616
10,52.4233,7620
10,52.4233,7624
10,52.4233,7628
10,52.4233,7632
10,52.4233,7636
10,52.4233,7640
10,52.4233,7644
11,52.4233,7648
11,52.4233,7652
11,52.4233,7656
10,52.4233,7660
10,52.4233,7664
10,52.4233,7668
10,52.4233,7672
10,52.4233,7676
10,52.4233,7680
10,54,7684
10,54,7688
12,54,7692
10,54,7696
10,54,7700
10,54,7704
10,54,7708
10,54,7712
10,54,7716
10,54,7720
10,54,7724
10,54,7728
10,54,7732
10,54,7736
10,54,7740
12,54,7744
11,54,7748
10,54,7752
10,54,7756
10,54,7760
10,54,7764
10,54,7768
11,54,7772
10,54,7776
10,54,7780
10,54,7784
10,54,7788
13,54,7792
10,54,7796
10,54,7800
10,54,7804
10,54,7808
10,54,7812
10,54,7816
10,54,7820
10,54,7824
10,54,7828
10,54,7832
10,54,7836
10,54,7840
10,54,7844
10,54,7848
10,54,7852
11,54,7856
10,54,7860
11,54,7864
14,54,7868
11,54,7872
10,54,7876
10,54,7880
10,54,7884
10,54,7888
11,54,7892
10,54,7896
10,54,7900
10,54,7904
10,54,7908
10,54,7912
12,54,7916
10,54,7920
10,60,7924
11,60,7928
10,60,7932
10,60,7936
11,60,7940
11,60,7944
10,60,7948
10,60,7952
10,60,7956
10,60,7960
10,60,7964
12,60,7968
10,60,7972
10,60,7976
10,60,7980
10,60,7984
10,60,7988
11,60,7992
11,60,7996
10,60,8000
10,60,8004
10,60,8008
11,60,8012
10,60,8016
11,60,8020
10,60,8024
12,60,8028
11,60,8032
10,60,8036
11,60,8040
11,60,8044
10,60,8048
10,60,8052
10,60,8056
10,60,8060
11,60,8064
11,60,8068
10,60,8072
10,60,8076
11,60,8080
10,60,8084
10,60,8088
14,60,8092
18,60,8096
10,60,8100
10,60,8104
10,60,8108
10,60,8112
11,60,8116
10,60,8120
10,60,8124
10,60,8128
10,60,8132
11,60,8136
11,60,8140
11,60,8144
11,60,8148
10,60,8152
10,60,8156
11,60,8160
10,57.9421,8164
14,57.9421,8168
11,57.9421,8172
10,57.9421,8176
11,57.9421,8180
10,57.9421,8184
11,57.9421,8188
12,57.9421,8192
11,57.9421,8196
10,57.9421,8200
10,57.9421,8204
11,57.9421,8208
11,57.9421,8212
18,57.9421,8216
12,57.9421,8220
11,57.9421,8224
10,57.9421,8228
10,57.9421,8232
11,57.9421,8236
11,57.9421,8240
11,57.9421,8244
10,57.9421,8248
11,57.9421,8252
11,57.9421,8256
11,57.9421,8260
12,57.9421,8264
11,57.9421,8268
11,57.9421,8272
11,57.9421,8276
11,57.9421,8280
11,57.9421,8284
11,57.9421,8288
11,57.9421,8292
11,57.9421,8296
11,57.9421,8300
11,57.9421,8304
11,57.9421,8308
11,57.9421,8312
11,57.9421,8316
11,57.9421,8320
12,57.9421,8324
11,57.9421,8328
11,57.9421,8332
11,57.9421,8336
11,57.9421,8340
11,57.9421,8344
11,57.9421,8348
11,57.9421,8352
11,57.9421,8356
12,57.9421,8360
11,57.9421,8364
12,57.9421,8368
11,57.9421,8372
11,57.9421,8376
15,57.9421,8380
11,57.9421,8384
13,57.9421,8388
16,57.9421,8392
15,57.9421,8396
11,57.9421,8400
14,56.7729,8404
13,56.7729,8408
12,56.7729,8412
11,56.7729,8416
11,56.7729,8420
14,56.7729,8424
12,56.7729,8428
11,56.7729,8432
11,56.7729,8436
11,56.7729,8440
11,56.7729,8444
14,56.7729,8448
11,56.7729,8452
11,56.7729,8456
11,56.7729,8460
11,56.7729,8464
11,56.7729,8468
13,56.7729,8472
12,56.7729,8476
11,56.7729,8480
11,56.7729,8484
11,56.7729,8488
11,56.7729,8492
11,56.7729,8496
11,56.7729,8500
12,56.7729,8504
11,56.7729,8508
11,56.7729,8512
11,56.7729,8516
11,56.7729,8520
11,56.7729,8524
11,56.7729,8528
12,56.7729,8532
11,56.7729,8536
12,56.7729,8540
11,56.7729,8544
29,56.7729,8548
11,56.7729,8552
12,56.7729,8556
11,56.7729,8560
12,56.7729,8564
11,56.7729,8568
11,56.7729,8572
22,56.7729,8576
13,56.7729,8580
11,56.7729,8584
11,56.7729,8588
11,56.7729,8592
11,56.7729,8596
16,56.7729,8600
13,56.7729,8604
12,56.7729,8608
11,56.7729,8612
11,56.7729,8616
11,56.7729,8620
11,56.7729,8624
11,56.7729,8628
11,56.7729,8632
11,56.7729,8636
12,56.7729,8640
11,56.7729,8644
11,54.3478,8648
11,54.3478,8652
11,54.3478,8656
11,54.3478,8660
11,54.3478,8664
11,54.3478,8668
12,54.3478,8672
12,54.3478,8676
11,54.3478,8680
11,54.3478,8684
11,54.3478,8688
11,54.3478,8692
11,54.3478,8696
13,54.3478,8700
11,54.3478,8704
11,54.3478,8708
12,54.3478,8712
11,54.3478,8716
11,54.3478,8720
18,54.3478,8724
13,54.3478,8728
12,54.3478,8732
11,54.3478,8736
11,54.3478,8740
11,54.3478,8744
12,54.3478,8748
12,54.3478,8752
11,54.3478,8756
11,54.3478,8760
12,54.3478,8764
11,54.3478,8768
11,54.3478,8772
11,54.3478,8776
13,54.3478,8780
11,54.3478,8784
12,54.3478,8788
11,54.3478,8792
12,54.3478,8796
11,54.3478,8800
12,54.3478,8804
12,54.3478,8808
11,54.3478,8812
12,54.3478,8816
11,54.3478,8820
12,54.3478,8824
12,54.3478,8828
12,54.3478,8832
12,54.3478,8836
12,54.3478,8840
12,54.3478,8844
12,54.3478,8848
11,54.3478,8852
11,54.3478,8856
11,54.3478,8860
11,54.3478,8864
12,54.3478,8868
18,54.3478,8872
15,54.3478,8876
12,54.3478,8880
12,54.3478,8884
12,55.8882,8888
12,55.8882,8892
11,55.8882,8896
15,55.8882,8900
11,55.8882,8904
12,55.8882,8908
12,55.8882,8912
11,55.8882,8916
12,55.8882,8920
13,55.8882,8924
12,55.8882,8928
12,55.8882,8932
12,55.8882,8936
12,55.8882,8940
12,55.8882,8944
12,55.8882,8948
14,55.8882,8952
12,55.8882,8956
12,55.8882,8960
11,55.8882,8964
12,55.8882,8968
12,55.8882,8972
12,55.8882,8976
17,55.8882,8980
14,55.8882,8984
13,55.8882,8988
12,55.8882,8992
12,55.8882,8996
12,55.8882,9000
12,55.8882,9004
12,55.8882,9008
12,55.8882,9012
12,55.8882,9016
13,55.8882,9020
19,55.8882,9024
15,55.8882,9028
12,55.8882,9032
12,55.8882,9036
12,55.8882,9040
15,55.8882,9044
13,55.8882,9048
15,55.8882,9052
15,55.8882,9056
13,55.8882,9060
12,55.8882,9064
12,55.8882,9068
12,55.8882,9072
14,55.8882,9076
19,55.8882,9080
12,55.8882,9084
13,55.8882,9088
12,55.8882,9092
12,55.8882,9096
12,55.8882,9100
14,55.8882,9104
12,55.8882,9108
13,55.8882,9112
12,55.8882,9116
12,55.8882,9120
12,55.8882,9124
13,55.8882,9128
13,45.1866,9132
12,45.1866,9136
12,45.1866,9140
16,45.1866,9144
13,45.1866,9148
12,45.1866,9152
12,45.1866,9156
13,45.1866,9160
12,45.1866,9164
12,45.1866,9168
12,45.1866,9172
12,45.1866,9176
12,45.1866,9180
12,45.1866,9184
12,45.1866,9188
12,45.1866,9192
21,45.1866,9196
13,45.1866,9200
12,45.1866,9204
12,45.1866,9208
12,45.1866,9212
12,45.1866,9216
12,45.1866,9220
12,45.1866,9224
13,45.1866,9228
12,45.1866,9232
12,45.1866,9236
12,45.1866,9240
12,45.1866,9244
12,45.1866,9248
12,45.1866,9252
13,45.1866,9256
12,45.1866,9260
12,45.1866,9264
13,45.1866,9268
12,45.1866,9272
12,45.1866,9276
13,45.1866,9280
12,45.1866,9284
14,45.1866,9288
13,45.1866,9292
21,45.1866,9296
14,45.1866,9300
13,45.1866,9304
16,45.1866,9308
12,45.1866,9312
12,45.1866,9316
12,45.1866,9320
12,45.1866,9324
13,45.1866,9328
16,45.1866,9332
15,45.1866,9336
13,45.1866,9340
12,45.1866,9344
41,45.1866,9348
13,45.1866,9352
13,45.1866,9356
13,45.1866,9360
14,45.1866,9364
12,45.1866,9368
13,45.1866,9372
13,45.1866,9376
16,45.1866,9380
16,45.1866,9384
13,45.1866,9388
12,38.817,9392
12,38.817,9396
12,38.817,9400
38,38.817,9404
13,38.817,9408
12,38.817,9412
13,38.817,9416
12,38.817,9420
13,38.817,9424
12,38.817,9428
20,38.817,9432
25,38.817,9436
12,38.817,9440
13,38.817,9444
12,38.817,9448
12,38.817,9452
13,38.817,9456
40,38.817,9460
12,38.817,9464
13,38.817,9468
13,38.817,9472
12,38.817,9476
13,38.817,9480
13,38.817,9484
12,38.817,9488
12,38.817,9492
12,38.817,9496
12,38.817,9500
12,38.817,9504
13,38.817,9508
12,38.817,9512
13,38.817,9516
13,38.817,9520
12,38.817,9524
13,38.817,9528
12,38.817,9532
12,38.817,9536
13,38.817,9540
13,38.817,9544
12,38.817,9548
13,38.817,9552
12,38.817,9556
13,38.817,9560
14,38.817,9564
14,38.817,9568
14,38.817,9572
13,38.817,9576
15,38.817,9580
14,38.817,9584
14,38.817,9588
13,38.817,9592
14,38.817,9596
12,38.817,9600
13,38.817,9600
17,38.817,9600
15,38.817,9600
13,38.817,9600
13,38.817,9600
12,38.817,9600
13,38.817,9600
18,40,9600
21,40,9600
12,40,9600
13,40,9600
13,40,9600
13,40,9600
13,40,9600
15,40,9600
13,40,9600
13,40,9600
13,40,9600
12,40,9600
12,40,9600
19,40,9600
15,40,9600
13,40,9600
13,40,9600
13,40,9600
13,40,9600
15,40,9600
14,40,9600
14,40,9600
13,40,9600
13,40,9600
12,40,9600
13,40,9600
13,40,9600
13,40,9600
13,40,9600
13,40,9600
13,40,9600
12,40,9600
13,40,9600
13,40,9600
12,40,9600
13,40,9600
13,40,9600
13,40,9600
13,40,9600
13,40,9600
13,40,9600
13,40,9600
13,40,9600
13,40,9600
14,40,9600
13,40,9600
13,40,9600
13,40,9600
13,40,9600
13,40,9600
19,40,9600
23,40,9600
13,40,9600
12,40,9600
13,40,9600
13,40,9600
13,40,9600
14,40,9600
13,40,9600
13,40,9600
13,49.95,9600
13,49.95,9600
15,49.95,9602
15,49.95,9604
15,49.95,9606
15,49.95,9608
15,49.95,9610
15,49.95,9612
17,49.95,9614
18,49.95,9616
14,49.95,9618
15,49.95,9620
14,49.95,9622
14,49.95,9624
16,49.95,9626
20,49.95,9628
14,49.95,9630
14,49.95,9632
14,49.95,9634
15,49.95,9636
14,49.95,9638
17,49.95,9640
17,49.95,9642
15,49.95,9644
14,49.95,9646
14,49.95,9648
15,49.95,9650
15,49.95,9652
15,49.95,9654
14,49.95,9656
14,49.95,9658
15,49.95,9660
15,49.95,9662
16,49.95,9664
14,49.95,9666
15,49.95,9668
15,49.95,9670
15,49.95,9672
15,49.95,9674
15,49.95,9676
15,49.95,9678
14,49.95,9680
14,49.95,9682
15,49.95,9684
15,49.95,9686
16,49.95,9688
15,49.95,9690
16,49.95,9692
15,49.95,9694
15,49.95,9696
16,49.95,9698
15,49.95,9700
15,49.95,9702
15,49.95,9704
15,49.95,9706
15,49.95,9708
24,49.95,9710
15,49.95,9712
15,49.95,9714
14,49.95,9716
16,49.95,9718
16,49.95,9720
17,49.95,9722
16,49.95,9724
16,49.95,9726
16,49.95,9728
15,23.084,9730
16,23.084,9732
16,23.084,9734
16,23.084,9736
16,23.084,9738
14,23.084,9740
18,23.084,9742
24,23.084,9744
19,23.084,9746
15,23.084,9748
14,23.084,9750
15,23.084,9752
15,23.084,9754
17,23.084,9756
20,23.084,9758
16,23.084,9760
15,23.084,9762
14,23.084,9764
14,23.084,9766
15,23.084,9768
27,23.084,9770
17,23.084,9772
15,23.084,9774
15,23.084,9776
15,23.084,9778
15,23.084,9780
17,23.084,9782
17,23.084,9784
14,23.084,9786
15,23.084,9788
15,23.084,9790
15,23.084,9792
21,23.084,9794
16,23.084,9796
15,23.084,9798
15,23.084,9800
14,23.084,9802
15,23.084,9804
15,23.084,9806
15,23.084,9808
15,23.084,9810
15,23.084,9812
15,23.084,9814
15,23.084,9816
24,23.084,9818
17,23.084,9820
15,23.084,9822
14,23.084,9824
15,23.084,9826
14,23.084,9828
14,23.084,9830
17,23.084,9832
22,23.084,9834
15,23.084,9836
15,23.084,9838
14,23.084,9840
14,23.084,9842
16,23.084,9844
21,23.084,9846
16,23.084,9848
15,23.084,9850
15,23.084,9852
15,23.084,9854
15,8.57143,9856
18,8.57143,9858
16,8.57143,9860
15,8.57143,9862
15,8.57143,9864
15,8.57143,9866
15,8.57143,9868
16,8.57143,9870
15,8.57143,9872
15,8.57143,9874
15,8.57143,9876
15,8.57143,9878
16,8.57143,9880
16,8.57143,9882
15,8.57143,9884
15,8.57143,9886
15,8.57143,9888
15,8.57143,9890
15,8.57143,9892
16,8.57143,9894
17,8.57143,9896
15,8.57143,9898
15,8.57143,9900
16,8.57143,9902
15,8.57143,9904
16,8.57143,9906
15,8.57143,9908
15,8.57143,9910
15,8.57143,9912
15,8.57143,9914
17,8.57143,9916
16,8.57143,9918
16,8.57143,9920
15,8.57143,9922
15,8.57143,9924
15,8.57143,9926
19,8.57143,9928
19,8.57143,9930
15,8.57143,9932
15,8.57143,9934
14,8.57143,9936
15,8.57143,9938
15,8.57143,9940
25,8.57143,9942
15,8.57143,9944
15,8.57143,9946
14,8.57143,9948
15,8.57143,9950
16,8.57143,9952
16,8.57143,9954
17,8.57143,9956
15,8.57143,9958
16,8.57143,9960
16,8.57143,9962
15,8.57143,9964
15,8.57143,9966
15,8.57143,9968
15,8.57143,9970
15,8.57143,9972
16,8.57143,9974
15,17,9976
18,17,9978
22,17,9980
15,17,9982
15,17,9984
16,17,9986
15,17,9988
16,17,9990
16,17,9992
16,17,9994
16,17,9996
15,17,9998
16,17,10000
16,17,10002
16,17,10004
16,17,10006
15,17,10008
16,17,10010
16,17,10012
25,17,10014
17,17,10016
15,17,10018
15,17,10020
16,17,10022
16,17,10024
17,17,10026
16,17,10028
16,17,10030
16,17,10032
16,17,10034
16,17,10036
16,17,10038
17,17,10040
16,17,10042
15,17,10044
16,17,10046
16,17,10048
17,17,10050
16,17,10052
16,17,10054
15,17,10056
15,17,10058
15,17,10060
16,17,10062
19,17,10064
15,17,10066
15,17,10068
15,17,10070
15,17,10072
25,17,10074
17,17,10076
15,17,10078
14,17,10080
15,17,10082
15,17,10084
16,17,10086
17,17,10088
16,17,10090
16,17,10092
15,17,10094
16,9,10096
17,9,10098
20,9,10100
15,9,10102
15,9,10104
15,9,10106
15,9,10108
16,9,10110
17,9,10112
15,9,10114
15,9,10116
15,9,10118
15,9,10120
20,9,10122
16,9,10124
15,9,10126
15,9,10128
16,9,10130
16,9,10132
16,9,10134
17,9,10136
16,9,10138
14,9,10140
16,9,10142
15,9,10144
16,9,10146
16,9,10148
15,9,10150
15,9,10152
16,9,10154
15,9,10156
18,9,10158
16,9,10160
15,9,10162
15,9,10164
15,9,10166
16,9,10168
17,9,10170
15,9,10172
16,9,10174
15,9,10176
16,9,10178
15,9,10180
24,9,10182
21,9,10184
15,9,10186
15,9,10188
15,9,10190
16,9,10192
17,9,10194
17,9,10196
15,9,10198
17,9,10200
16,9,10202
17,9,10204
16,9,10206
19,9,10208
16,9,10210
15,9,10212
16,9,10214
14,9,10216
16,9,10218
16,9,10220
16,9,10222
16,9,10224
17,9,10226
16,9,10228
17,9,10230
17,9,10232
17,9,10234
17,9,10236
17,9,10238
16,9,10240
17,9,10242
17,9,10244
16,9,10246
16,9,10248
17,9,10250
16,9,10252
17,9,10254
16,9,10256
16,9,10258
17,9,10260
16,9,10262
16,9,10264
19,9,10266
17,9,10268
16,9,10270
16,9,10272
16,9,10274
16,9,10276
17,9,10278
17,9,10280
15,9,10282
20,6.38162,10284
22,6.38162,10286
17,6.38162,10288
15,6.38162,10290
16,6.38162,10292
16,6.38162,10294
17,6.38162,10296
16,6.38162,10298
17,6.38162,10300
16,6.38162,10302
17,6.38162,10304
16,6.38162,10306
18,6.38162,10308
18,6.38162,10310
16,6.38162,10312
17,6.38162,10314
16,6.38162,10316
16,6.38162,10318
16,6.38162,10320
17,6.38162,10322
16,6.38162,10324
16,6.38162,10326
16,6.38162,10328
17,6.38162,10330
17,6.38162,10332
16,6.38162,10334
16,6.38162,10336
16,6.38162,10338
16,6.38162,10340
23,6.38162,10342
19,6.38162,10344
18,6.38162,10346
17,6.38162,10348
16,6.38162,10350
16,6.38162,10352
17,6.38162,10354
17,6.38162,10356
15,6.38162,10358
16,6.38162,10360
16,6.38162,10362
18,6.38162,10364
17,6.38162,10366
16,6.38162,10368
16,6.38162,10370
16,6.38162,10372
16,6.38162,10374
17,6.38162,10376
17,6.38162,10378
17,6.38162,10380
16,6.38162,10382
17,6.38162,10384
17,6.38162,10386
18,6.38162,10388
17,6.38162,10390
16,6.38162,10392
17,6.38162,10394
17,6.38162,10396
17,6.38162,10398
17,6.38162,10400
16,6.38162,10402
17,6.38162,10404
17,6.38162,10406
17,6.38162,10408
18,6.38162,10410
17,6.38162,10412
16,6.38162,10414
17,6.38162,10416
16,6.38162,10418
17,6.38162,10420
17,6.38162,10422
17,6.38162,10424
16,6.38162,10426
16,6.38162,10428
17,6.38162,10430
18,6.38162,10432
16,6.38162,10434
16,6.38162,10436
17,6.38162,10438
16,6.38162,10440
17,6.38162,10442
16,6.38162,10444
17,6.38162,10446
16,6.38162,10448
17,6.38162,10450
18,6.38162,10452
17,6.38162,10454
17,6.38162,10456
16,6.38162,10458
16,6.38162,10460
17,6.38162,10462
17,6.38162,10464
17,6.38162,10466
16,6.38162,10468
16,6.38162,10470
17,6.38162,10472
16,6.38162,10474
18,6.38162,10476
18,6.38162,10478
17,6.38162,10480
17,6.38162,10482
18,6.38162,10484
16,6.38162,10486
17,6.38162,10488
16,6.38162,10490
17,6.38162,10492
18,6.38162,10494
16,6.38162,10496
16,6.38162,10498
17,6.38162,10500
18,6.38162,10502
18,6.38162,10504
17,6.38162,10506
17,6.38162,10508
18,6.38162,10510
19,6.38162,10512
18,6.38162,10514
20,6.38162,10516
17,6.38162,10518
18,6.38162,10520
17,6.38162,10522
17,6.38162,10524
19,6.38162,10526
16,6.38162,10528
15,6.38162,10530
17,6.38162,10532
17,6.38162,10534
18,6.38162,10536
17,6.38162,10538
17,6.38162,10540
17,6.38162,10542
17,6.38162,10544
15,6.38162,10546
17,6.38162,10548
19,6.38162,10550
18,6.38162,10552
16,6.38162,10554
17,6.38162,10556
17,6.38162,10558
17,6.38162,10560
19,6.38162,10562
17,6.38162,10564
17,6.38162,10566
15,6.38162,10568
16,6.38162,10570
16,6.38162,10572
18,6.38162,10574
15,6.38162,10576
16,6.38162,10578
16,6.38162,10580
18,6.38162,10582
18,6.38162,10584
19,6.38162,10586
18,6.38162,10588
18,6.38162,10590
17,6.38162,10592
20,6.38162,10594
18,6.38162,10596
17,6.38162,10598
16,6.38162,10600
16,6.38162,10602
17,6.38162,10604
16,6.38162,10606
16,6.38162,10608
17,6.38162,10610
17,6.38162,10612
17,6.38162,10614
23,6.38162,10616
19,6.38162,10618
16,6.38162,10620
15,6.38162,10622
15,6.38162,10624
17,6.38162,10626
17,6.38162,10628
18,6.38162,10630
16,6.38162,10632
17,6.38162,10634
17,6.38162,10636
16,6.38162,10638
22,6.38162,10640
17,6.38162,10642
17,6.38162,10644
16,6.38162,10646
17,6.38162,10648
